---------- FFT(-1) ----------
64; 0,000036
128; 0,000036
256; 0,000036
512; 0,000000
1024; 0,000000
1536; 0,000000
2048; 0,000000
4096; 0,000000
8192; 0,000000
16384; 0,000036
32768; 0,000036
65536; 0,000036
131072; 0,000036
262144; 0,000036
524288; 0,000036
1048576; 0,000036

---------- FFT(1) ----------
64; 0,000000
128; 0,000036
256; 0,000036
512; 0,000036
1024; 0,000000
1536; 0,000000
2048; 0,000000
4096; 0,000036
8192; 0,000000
16384; 0,000036
32768; 0,000036
65536; 0,000000
131072; 0,000000
262144; 0,000000
524288; 0,000000
1048576; 0,000000

