---------- FFT(-1) ----------
64; 0,188143
128; 0,227786
256; 0,369393
512; 0,650964
1024; 1,351357
1536; 2,482750
2048; 5,075821
4096; 9,235250
8192; 19,454393
16384; 50,648714
32768; 86,414929
65536; 188,913786
131072; 373,699643
262144; 737,167107
524288; 1444,225429
1048576; 2879,199429

---------- FFT(1) ----------
64; 0,245786
128; 0,231500
256; 0,350000
512; 0,619857
1024; 2,069893
1536; 3,746393
2048; 3,621429
4096; 10,405679
8192; 20,251071
16384; 48,450500
32768; 87,196393
65536; 180,438179
131072; 352,128750
262144; 694,317464
524288; 1490,983643
1048576; 2859,755286

