---------- FFT(-1) ----------
64; 1,125000
128; 1,273000
256; 1,393143
512; 1,838143
1024; 2,773286
1536; 3,747714
2048; 4,385714
4096; 7,336000
8192; 28,837714
16384; 74,453714
32768; 153,102286
65536; 283,912429
131072; 553,761286
262144; 1115,630000
524288; 2616,566571
1048576; 5075,997000

---------- FFT(1) ----------
64; 1,178143
128; 1,236714
256; 1,377571
512; 1,958714
1024; 2,770571
1536; 3,494286
2048; 4,533286
4096; 8,483000
8192; 29,694714
16384; 74,314000
32768; 146,624429
65536; 272,205571
131072; 556,512429
262144; 1108,623857
524288; 2215,677143
1048576; 5054,451714

