---------- FFT(-1) ----------
64; 7,279429
128; 7,899143
256; 7,621714
512; 8,780000
1024; 11,345714
1536; 14,716000
2048; 15,385571
4096; 27,934000
8192; 49,563143
16384; 91,197286
32768; 188,970714
65536; 453,578857
131072; 949,259429
262144; 1744,371286
524288; 3668,628857
1048576; 7997,171286

---------- FFT(1) ----------
64; 7,208286
128; 7,957143
256; 6,222000
512; 8,886857
1024; 11,262286
1536; 14,577000
2048; 15,179286
4096; 36,102857
8192; 49,382429
16384; 91,688000
32768; 189,192000
65536; 458,666143
131072; 947,990857
262144; 1747,082286
524288; 3671,265000
1048576; 7992,598714

