testFFTW3TimingsNoTransfer,sh verbosity=0 nbWarmup=-100 nbLoop=500
---------- FFT(-1) ----------
64; 0,002000
128; 0,000000
256; 0,000000
512; 0,002000
1024; 0,002000
1536; 0,000000
2048; 0,000000
4096; 0,002000
8192; 0,002000
16384; 0,002000
32768; 0,002000
65536; 0,000000
131072; 0,000000
262144; 0,002000
524288; 0,002000
1048576; 0,002000

---------- FFT(1) ----------
64; 0,002000
128; 0,002000
256; 0,002000
512; 0,002000
1024; 0,002000
1536; 0,000000
2048; 0,002000
4096; 0,000000
8192; 0,002000
16384; 0,002000
32768; 0,000000
65536; 0,002000
131072; 0,000000
262144; 0,000000
524288; 0,000000
1048576; 0,002000

