---------- FFT(-1) ----------
64; 26,600000
128; 19,268000
256; 27,054000
512; 29,828000
1024; 27,072000
1536; 22,424000
2048; 23,192000
4096; 31,102000
8192; 30,652000
16384; 36,718000
32768; 44,866000
65536; 69,594000
131072; 251,196000
262144; 430,554000
524288; 762,680000
1048576; 1562,590000

---------- FFT(1) ----------
64; 20,294000
128; 20,358000
256; 24,488000
512; 20,290000
1024; 21,044000
1536; 21,250000
2048; 22,500000
4096; 25,432000
8192; 11,780000
16384; 36,580000
32768; 46,176000
65536; 65,518000
131072; 210,992000
262144; 440,322000
524288; 866,954000
1048576; 1561,890000

