---------- FFT(-1) ----------
64; 8,249250
128; 8,776750
256; 12,487750
512; 12,378000
1024; 60,014000
1536; 52,436000
2048; 289,556750
4096; 411,458000
8192; 471,897250
16384; 2212,366250
32768; 4515,975250
65536; 11844,503250
131072; 21507,948250
262144; 40794,820750
524288; 87563,896500
1048576; 137838,764500

---------- FFT(1) ----------
64; 8,229750
128; 7,339500
256; 12,361500
512; 14,368250
1024; 54,850750
1536; 67,536250
2048; 268,249750
4096; 400,726250
8192; 628,547750
16384; 1855,269500
32768; 4161,353000
65536; 10866,097000
131072; 23431,139750
262144; 39638,767000
524288; 53790,903000
1048576; 357022,185000

