---------- FFT(-1) ----------
64; 1,915929
128; 2,242714
256; 3,091357
512; 4,706857
1024; 8,803143
1536; 13,328286
2048; 17,753571
4096; 53,042000
8192; 147,531643
16384; 306,566786
32768; 681,977286
65536; 1829,770357
131072; 3368,732357
262144; 8271,607071
524288; 17040,248000
1048576; 35724,909643

---------- FFT(1) ----------
64; 1,995786
128; 2,211000
256; 3,218286
512; 4,588429
1024; 9,048643
1536; 14,763071
2048; 18,522786
4096; 53,683071
8192; 149,091357
16384; 316,462786
32768; 716,752214
65536; 1839,264857
131072; 3650,179929
262144; 8400,529214
524288; 17020,606286
1048576; 36118,699143

