---------- FFT(-1) ----------
64; 4,931429
128; 3,115714
256; 8,880571
512; 8,961714
1024; 53,857429
1536; 76,995500
2048; 336,262857
4096; 512,723929
8192; 1140,123143
16384; 2781,907214
32768; 5651,493143
65536; 13286,347500
131072; 25735,640571
262144; 50829,966571
524288; 131264,251286
1048576; 441605,738429

---------- FFT(1) ----------
64; 4,943214
128; 5,172571
256; 10,418786
512; 11,796286
1024; 77,541500
1536; 110,576000
2048; 349,720286
4096; 531,142857
8192; 441,140357
16384; 2155,988000
32768; 4791,332357
65536; 14626,936786
131072; 29539,029429
262144; 51648,724643
524288; 64515,111000
1048576; 162505,093071

