testFFTW3Timings,sh verbosity=0 nbWarmup=-100 nbLoop=500
---------- FFT(-1) ----------
64; 20,250000
128; 18,302000
256; 18,182000
512; 18,924000
1024; 21,878000
1536; 38,940000
2048; 27,184000
4096; 48,572000
8192; 151,358000
16384; 180,762000
32768; 311,732000
65536; 841,692000
131072; 2250,228000
262144; 6570,540000
524288; 24216,824000
1048576; 56987,674000

---------- FFT(1) ----------
64; 10,088000
128; 10,162000
256; 10,704000
512; 11,954000
1024; 14,822000
1536; 27,492000
2048; 20,450000
4096; 38,250000
8192; 78,916000
16384; 145,978000
32768; 333,888000
65536; 874,294000
131072; 2508,632000
262144; 6623,480000
524288; 24259,260000
1048576; 53936,020000

