---------- FFT(-1) ----------
64; 0,397429
128; 0,680571
256; 0,614571
512; 2,283571
1024; 2,998571
1536; 1,908000
2048; 5,653571
4096; 9,353429
8192; 19,266143
16384; 52,089857
32768; 88,333571
65536; 154,951714
131072; 293,905286
262144; 595,511000
524288; 1134,006714
1048576; 2286,896143

---------- FFT(1) ----------
64; 0,694571
128; 0,672714
256; 1,095714
512; 1,011143
1024; 1,503714
1536; 4,734429
2048; 5,751857
4096; 5,287286
8192; 19,880143
16384; 48,757714
32768; 77,557857
65536; 163,532143
131072; 270,865571
262144; 571,776714
524288; 1163,557143
1048576; 2257,608571

