---------- FFT(-1) ----------
64; 1,153429
128; 1,194857
256; 1,351286
512; 1,604429
1024; 3,466143
1536; 3,778857
2048; 4,836286
4096; 7,006571
8192; 15,162000
16384; 40,274714
32768; 100,428857
65536; 199,970857
131072; 388,041429
262144; 832,532571
524288; 1542,132143
1048576; 4685,406857

---------- FFT(1) ----------
64; 1,164429
128; 1,241143
256; 1,346857
512; 2,233286
1024; 3,224857
1536; 3,142286
2048; 5,465286
4096; 7,335429
8192; 16,570000
16384; 41,358000
32768; 98,331429
65536; 200,141286
131072; 404,688714
262144; 782,315429
524288; 1545,194143
1048576; 4705,425429

