---------- FFT(-1) ----------
64; 0,001000
128; 0,000000
256; 0,000000
512; 0,000000
1024; 0,001000
1536; 0,000000
2048; 0,001000
4096; 0,000000
8192; 0,000000
16384; 0,000000

---------- FFT(1) ----------
64; 0,000000
128; 0,000000
256; 0,000000
512; 0,001000
1024; 0,000000
1536; 0,000000
2048; 0,001000
4096; 0,001000
8192; 0,000000
16384; 0,001000

