---------- FFT(-1) ----------
64; 0,000018
128; 0,000018
256; 0,000000
512; 0,000018
1024; 0,000000
1536; 0,000018
2048; 0,000000
4096; 0,000000
8192; 0,000000
16384; 0,000018
32768; 0,000000
65536; 0,000018
131072; 0,000018
262144; 0,000018
524288; 0,000000
1048576; 0,000018

---------- FFT(1) ----------
64; 0,000000
128; 0,000000
256; 0,000000
512; 0,000018
1024; 0,000018
1536; 0,000018
2048; 0,000000
4096; 0,000000
8192; 0,000018
16384; 0,000018
32768; 0,000000
65536; 0,000018
131072; 0,000018
262144; 0,000000
524288; 0,000018
1048576; 0,000000

