---------- FFT(-1) ----------
64; 0,337286
128; 0,337214
256; 0,621500
512; 1,675071
1024; 2,268643
1536; 3,396857
2048; 4,704214
4096; 9,308571
8192; 18,984857
16384; 41,977000
32768; 81,755214
65536; 177,404143
131072; 375,725214
262144; 690,610929
524288; 1438,681857
1048576; 2851,217214

---------- FFT(1) ----------
64; 0,350714
128; 0,361143
256; 0,470571
512; 0,683143
1024; 2,621786
1536; 3,680071
2048; 5,005929
4096; 10,137500
8192; 18,634786
16384; 46,075857
32768; 94,785857
65536; 174,093857
131072; 367,369286
262144; 725,240286
524288; 1405,155000
1048576; 2800,555500

