---------- FFT(-1) ----------
64; 291,936000
128; 273,664000
256; 226,482000
512; 252,016000
1024; 254,362000
1536; 271,290000
2048; 250,712000
4096; 354,614000
8192; 813,528000
16384; 403,712000
32768; 640,532000
65536; 926,870000
131072; 1426,272000
262144; 3067,624000
524288; 7483,582000
1048576; 14849,012000

---------- FFT(1) ----------
64; 175,428000
128; 202,288000
256; 215,378000
512; 233,602000
1024; 242,504000
1536; 252,760000
2048; 255,394000
4096; 328,836000
8192; 785,512000
16384; 416,978000
32768; 630,906000
65536; 926,454000
131072; 1429,492000
262144; 3102,396000
524288; 7502,712000
1048576; 14861,524000

