---------- FFT(-1) ----------
64; 0,000500
128; 0,000500
256; 0,000500
512; 0,000000
1024; 0,000000
1536; 0,000000
2048; 0,000000
4096; 0,000000
8192; 0,000000
16384; 0,000000
32768; 0,000500
65536; 0,000500
131072; 0,000000
262144; 0,000500
524288; 0,000500
1048576; 0,000000

---------- FFT(1) ----------
64; 0,000500
128; 0,000500
256; 0,000500
512; 0,000000
1024; 0,000000
1536; 0,000000
2048; 0,000500
4096; 0,000500
8192; 0,000500
16384; 0,000000
32768; 0,000500
65536; 0,000500
131072; 0,000000
262144; 0,000500
524288; 0,000000
1048576; 0,000000

