---------- FFT(-1) ----------
64; 0,000000
128; 0,000500
256; 0,000000
512; 0,000500
1024; 0,000000
1536; 0,000500
2048; 0,000000
4096; 0,000500
8192; 0,000500
16384; 0,000500

---------- FFT(1) ----------
64; 0,000000
128; 0,000000
256; 0,000000
512; 0,000000
1024; 0,000500
1536; 0,000000
2048; 0,000000
4096; 0,000500
8192; 0,000000
16384; 0,000500

